\relax 
\citation{conway1968committees}
\citation{conway1968committees}
\citation{archcomm}
\citation{sdebt}
\citation{TamburriKLV15}
\citation{TamburriKLV15}
\citation{TufanoPBOPLP15}
\citation{Fowler:1999}
\citation{KhomhPGA12}
\citation{PalombaBPOL14}
\citation{damiansociotechnicaltse}
\citation{sdebt}
\citation{tdsmell}
\citation{CataldoHC08}
\citation{damiansociotechnicaltse}
\@writefile{toc}{\contentsline {section}{\numberline {I}Introduction}{1}}
\newlabel{sec:intro}{{I}{1}}
\citation{TamburriKLV15}
\citation{wasserman1994social}
\citation{Fowler:1999}
\citation{Fowler:1999}
\citation{Brown:1998}
\citation{Fowler:1999}
\citation{Fowler:1999}
\citation{JoblinMASR15}
\citation{appendix}
\citation{AmritSASNA}
\citation{MohaG07}
\citation{Cohen:1988}
\@writefile{toc}{\contentsline {section}{\numberline {II}Research Design}{2}}
\newlabel{sec:rd}{{II}{2}}
\@writefile{toc}{\contentsline {subsection}{\numberline {\unhbox \voidb@x \hbox {II-A}}Context of Study}{2}}
\@writefile{toc}{\contentsline {subsection}{\numberline {\unhbox \voidb@x \hbox {II-B}}Data Extraction and Analysis}{2}}
\citation{Agrawal:1993}
\citation{Agrawal:1993}
\citation{Agrawal:1993}
\citation{Cohen:1988}
\citation{TamburriKLV15}
\citation{Chatzigeorgiou:quatic10}
\citation{appendix}
\@writefile{toc}{\contentsline {section}{\numberline {III}Results}{3}}
\newlabel{sec:res}{{III}{3}}
\@writefile{lot}{\contentsline {table}{\numberline {I}{\ignorespaces Co-occurrences Between Community and Code Smells.}}{3}}
\newlabel{tab:associationRules}{{I}{3}}
\newlabel{tab:statisticsRQ2}{{III}{3}}
\@writefile{lot}{\contentsline {table}{\numberline {II}{\ignorespaces Results achieved after the application of the Mann-Kendall trend test.}}{3}}
\@writefile{toc}{\contentsline {section}{\numberline {IV}Discussion}{3}}
\newlabel{sec:disc}{{IV}{3}}
\citation{damiansociotechnicaltse}
\citation{TamburriN15}
\citation{TamburriKLV15}
\bibstyle{IEEEtran}
\bibdata{smells}
\bibcite{conway1968committees}{1}
\bibcite{archcomm}{2}
\bibcite{sdebt}{3}
\bibcite{TamburriKLV15}{4}
\bibcite{TufanoPBOPLP15}{5}
\bibcite{Fowler:1999}{6}
\bibcite{KhomhPGA12}{7}
\bibcite{PalombaBPOL14}{8}
\bibcite{damiansociotechnicaltse}{9}
\bibcite{tdsmell}{10}
\bibcite{CataldoHC08}{11}
\bibcite{wasserman1994social}{12}
\bibcite{Brown:1998}{13}
\bibcite{JoblinMASR15}{14}
\bibcite{appendix}{15}
\bibcite{AmritSASNA}{16}
\bibcite{MohaG07}{17}
\bibcite{Cohen:1988}{18}
\bibcite{Agrawal:1993}{19}
\bibcite{Chatzigeorgiou:quatic10}{20}
\bibcite{TamburriN15}{21}
\@writefile{toc}{\contentsline {section}{\numberline {V}Conclusion}{4}}
\newlabel{sec:conc}{{V}{4}}
\@writefile{toc}{\contentsline {section}{References}{4}}
